Asycfilt.dll
C1Sizer.ocx
C1SizerPpg.dll
Comcat.dll
Comct232.ocx
Comct332.ocx
Comctl32.ocx
Comdlg32.ocx
Dblist32.ocx
Dibsectn.dll
Expsrv.dll
Mfc40.dll
Mscomct2.ocx
Mscomctl.ocx
Msrdo20.dll
Msvbvm60.dll
Msvcrt40.dll
Oleaut32.dll
Olepro32.dll
Rdocurs.dll
Riched32.dll
Richtx32.ocx
Scrrun.dll
Stdole2.tlb
Tabctl32.ocx
Tdbg6.ocx
Tdbgpp.dll
Tdbl5.ocx
Tdbl6.ocx
Tlbinf32.dll
Vb5db.dll
Vbajet32.dll
vsFlex8l.ocx
Vsocx6.ocx
Xarray32.ocx
Xarraydb.ocx
